<svg width="16" height="12" viewBox="0 0 16 12" fill="none" xmlns="http://www.w3.org/2000/svg">
<path d="M9.84613 11.6538L8.7923 10.5692L12.6116 6.74999H0.5V5.25004H12.6116L8.7923 1.43079L9.84613 0.346191L15.5 6.00002L9.84613 11.6538Z" fill="#255167"/>
</svg>
